nbClients: 25
nbTrips: 3
VehCapacity: 180
ClientDemands: 
10	10	20	30	20	30	20	20	10	10	30	10	20	30	30	10	10	20	30	30	10	10	20	30	20	
ServiceTimes: 
83	120	93	59	111	109	103	75	71	150	135	101	129	92	93	109	126	112	149	58	105	82	90	93	54	
TravelTimes: 
0	33	27	55	84	27	57	68	30	72	4	68	65	34	9	76	46	18	72	59	25	77	31	71	87	32	
33	0	44	32	51	42	26	42	2	50	29	39	37	4	41	56	42	22	40	27	46	49	47	41	54	1	
27	44	0	74	88	3	70	62	43	93	28	65	61	47	24	97	72	21	84	61	4	93	4	68	91	43	
55	32	74	0	52	73	17	63	32	18	51	57	57	28	64	23	26	53	25	44	75	24	78	57	54	34	
84	51	88	52	0	85	36	33	54	60	80	26	30	51	92	64	78	70	29	27	91	41	90	23	3	52	
27	42	3	73	85	0	68	59	41	91	27	62	58	45	25	95	71	20	82	58	7	91	5	65	88	40	
57	26	70	17	36	68	0	46	27	31	53	40	40	23	66	36	41	49	15	27	72	23	73	40	38	27	
68	42	62	63	33	59	46	0	44	77	65	7	6	44	74	82	81	51	50	19	66	63	63	10	36	41	
30	2	43	32	54	41	27	44	0	50	26	42	39	4	39	55	40	21	42	30	44	50	47	44	56	3	
72	50	93	18	60	91	31	77	50	0	68	70	71	46	81	5	33	71	30	58	93	21	97	70	61	52	
4	29	28	51	80	27	53	65	26	68	0	64	61	30	13	72	44	15	68	55	27	73	32	67	83	28	
68	39	65	57	26	62	40	7	42	70	64	0	4	41	74	76	77	51	43	13	69	56	66	3	29	39	
65	37	61	57	30	58	40	6	39	71	61	4	0	39	71	76	76	48	45	13	65	58	62	7	32	36	
34	4	47	28	51	45	23	44	4	46	30	41	39	0	43	51	38	26	38	29	49	45	51	43	54	5	
9	41	24	64	92	25	66	74	39	81	13	74	71	43	0	85	54	23	81	66	21	86	28	77	95	40	
76	56	97	23	64	95	36	82	55	5	72	76	76	51	85	0	35	75	35	64	98	24	101	75	65	57	
46	42	72	26	78	71	41	81	40	33	44	77	76	38	54	35	0	53	51	63	71	49	76	78	79	43	
18	22	21	53	70	20	49	51	21	71	15	51	48	26	23	75	53	0	63	43	23	71	25	54	73	21	
72	40	84	25	29	82	15	50	42	30	68	43	45	38	81	35	51	63	0	33	86	13	87	42	30	41	
59	27	61	44	27	58	27	19	30	58	55	13	13	29	66	64	63	43	33	0	64	46	63	14	30	27	
25	46	4	75	91	7	72	66	44	93	27	69	65	49	21	98	71	23	86	64	0	95	7	72	94	44	
77	49	93	24	41	91	23	63	50	21	73	56	58	45	86	24	49	71	13	46	95	0	97	55	41	50	
31	47	4	78	90	5	73	63	47	97	32	66	62	51	28	101	76	25	87	63	7	97	0	69	93	46	
71	41	68	57	23	65	40	10	44	70	67	3	7	43	77	75	78	54	42	14	72	55	69	0	26	41	
87	54	91	54	3	88	38	36	56	61	83	29	32	54	95	65	79	73	30	30	94	41	93	26	0	54	
32	1	43	34	52	40	27	41	3	52	28	39	36	5	40	57	43	21	41	27	44	50	46	41	54	0	
