nbProblems: 1
nbClients: 10
MT-DMP10s0-01.txt
MT-DMP10s0-02.txt
MT-DMP10s0-03.txt
MT-DMP10s0-04.txt
MT-DMP10s0-05.txt
MT-DMP10s0-06.txt
MT-DMP10s0-07.txt
MT-DMP10s0-08.txt
MT-DMP10s0-09.txt
MT-DMP10s0-10.txt
MT-DMP10s0-11.txt
MT-DMP10s0-12.txt
MT-DMP10s0-13.txt
MT-DMP10s0-14.txt
MT-DMP10s0-15.txt
MT-DMP10s0-16.txt
MT-DMP10s0-17.txt
MT-DMP10s0-18.txt
MT-DMP10s0-19.txt
MT-DMP10s0-20.txt
MT-DMP10s0-21.txt
MT-DMP10s0-22.txt
MT-DMP10s0-23.txt
MT-DMP10s0-24.txt
MT-DMP10s0-25.txt
MT-DMP10s1-01.txt
MT-DMP10s1-02.txt
MT-DMP10s1-03.txt
MT-DMP10s1-04.txt
MT-DMP10s1-05.txt
MT-DMP10s1-06.txt
MT-DMP10s1-07.txt
MT-DMP10s1-08.txt
MT-DMP10s1-09.txt
MT-DMP10s1-10.txt
MT-DMP10s1-11.txt
MT-DMP10s1-12.txt
MT-DMP10s1-13.txt
MT-DMP10s1-14.txt
MT-DMP10s1-15.txt
MT-DMP10s1-16.txt
MT-DMP10s1-17.txt
MT-DMP10s1-18.txt
MT-DMP10s1-19.txt
MT-DMP10s1-20.txt
MT-DMP10s1-21.txt
MT-DMP10s1-22.txt
MT-DMP10s1-23.txt
MT-DMP10s1-24.txt
MT-DMP10s1-25.txt
MT-DMP10s2-01.txt
MT-DMP10s2-02.txt
MT-DMP10s2-03.txt
MT-DMP10s2-04.txt
MT-DMP10s2-05.txt
MT-DMP10s2-06.txt
MT-DMP10s2-07.txt
MT-DMP10s2-08.txt
MT-DMP10s2-09.txt
MT-DMP10s2-10.txt
MT-DMP10s2-11.txt
MT-DMP10s2-12.txt
MT-DMP10s2-13.txt
MT-DMP10s2-14.txt
MT-DMP10s2-15.txt
MT-DMP10s2-16.txt
MT-DMP10s2-17.txt
MT-DMP10s2-18.txt
MT-DMP10s2-19.txt
MT-DMP10s2-20.txt
MT-DMP10s2-21.txt
MT-DMP10s2-22.txt
MT-DMP10s2-23.txt
MT-DMP10s2-24.txt
MT-DMP10s2-25.txt
