nbProblems: 75
nbClients: 15
MT-DMP15s0-01.txt
MT-DMP15s0-02.txt
MT-DMP15s0-03.txt
MT-DMP15s0-04.txt
MT-DMP15s0-05.txt
MT-DMP15s0-06.txt
MT-DMP15s0-07.txt
MT-DMP15s0-08.txt
MT-DMP15s0-09.txt
MT-DMP15s0-10.txt
MT-DMP15s0-11.txt
MT-DMP15s0-12.txt
MT-DMP15s0-13.txt
MT-DMP15s0-14.txt
MT-DMP15s0-15.txt
MT-DMP15s0-16.txt
MT-DMP15s0-17.txt
MT-DMP15s0-18.txt
MT-DMP15s0-19.txt
MT-DMP15s0-20.txt
MT-DMP15s0-21.txt
MT-DMP15s0-22.txt
MT-DMP15s0-23.txt
MT-DMP15s0-24.txt
MT-DMP15s0-25.txt
MT-DMP15s1-01.txt
MT-DMP15s1-02.txt
MT-DMP15s1-03.txt
MT-DMP15s1-04.txt
MT-DMP15s1-05.txt
MT-DMP15s1-06.txt
MT-DMP15s1-07.txt
MT-DMP15s1-08.txt
MT-DMP15s1-09.txt
MT-DMP15s1-10.txt
MT-DMP15s1-11.txt
MT-DMP15s1-12.txt
MT-DMP15s1-13.txt
MT-DMP15s1-14.txt
MT-DMP15s1-15.txt
MT-DMP15s1-16.txt
MT-DMP15s1-17.txt
MT-DMP15s1-18.txt
MT-DMP15s1-19.txt
MT-DMP15s1-20.txt
MT-DMP15s1-21.txt
MT-DMP15s1-22.txt
MT-DMP15s1-23.txt
MT-DMP15s1-24.txt
MT-DMP15s1-25.txt
MT-DMP15s2-01.txt
MT-DMP15s2-02.txt
MT-DMP15s2-03.txt
MT-DMP15s2-04.txt
MT-DMP15s2-05.txt
MT-DMP15s2-06.txt
MT-DMP15s2-07.txt
MT-DMP15s2-08.txt
MT-DMP15s2-09.txt
MT-DMP15s2-10.txt
MT-DMP15s2-11.txt
MT-DMP15s2-12.txt
MT-DMP15s2-13.txt
MT-DMP15s2-14.txt
MT-DMP15s2-15.txt
MT-DMP15s2-16.txt
MT-DMP15s2-17.txt
MT-DMP15s2-18.txt
MT-DMP15s2-19.txt
MT-DMP15s2-20.txt
MT-DMP15s2-21.txt
MT-DMP15s2-22.txt
MT-DMP15s2-23.txt
MT-DMP15s2-24.txt
MT-DMP15s2-25.txt
