nbClients: 30
nbTrips: 3
VehCapacity: 200
ClientDemands: 
30	10	10	10	20	30	10	30	20	30	10	20	20	10	10	20	30	20	20	10	20	10	10	20	30	10	30	10	30	20	
ServiceTimes: 
3	42	9	32	18	35	44	9	48	49	43	35	41	41	27	44	45	29	6	29	47	23	5	15	34	21	41	18	42	46	
TravelTimes: 
0	11	56	46	71	32	63	13	82	25	26	25	60	65	37	35	39	24	16	32	73	20	16	45	41	67	72	73	16	17	57	
11	0	64	50	79	21	70	8	88	36	26	35	60	75	48	43	49	21	27	42	77	16	20	47	53	78	81	78	26	26	67	
56	64	0	27	15	75	10	69	28	41	44	34	48	19	58	21	23	53	50	26	32	76	44	33	40	38	20	25	56	59	15	
46	50	27	0	38	55	26	57	40	46	24	36	23	46	65	26	36	33	50	32	27	65	30	6	53	62	46	29	54	57	40	
71	79	15	38	0	90	12	84	19	54	58	48	57	18	69	36	35	68	64	40	33	91	59	45	49	38	11	24	69	73	19	
32	21	75	55	90	0	79	27	95	56	31	53	56	89	69	58	66	22	48	58	80	31	32	50	73	96	94	84	48	48	82	
63	70	10	26	12	79	0	75	19	51	47	42	44	26	67	29	33	57	59	35	24	83	50	32	50	46	22	16	64	67	23	
13	8	69	57	84	27	75	0	94	37	35	37	68	78	45	48	52	29	26	45	85	8	26	55	53	79	85	85	24	22	70	
82	88	28	40	19	95	19	94	0	70	64	62	50	38	86	49	52	73	78	54	21	102	67	45	67	58	29	12	84	87	38	
25	36	41	46	54	56	51	37	70	0	38	9	66	44	19	21	18	42	11	15	68	42	28	48	16	42	52	65	16	19	37	
26	26	44	24	58	31	47	35	64	38	0	30	34	60	57	29	39	9	36	32	51	43	11	20	51	70	63	53	39	41	52	
25	35	34	36	48	53	42	37	62	9	30	0	57	40	29	13	14	35	16	8	59	44	21	38	21	43	48	56	21	25	33	
60	60	48	23	57	56	44	68	50	66	34	57	0	68	86	49	59	39	68	55	30	76	44	19	76	85	66	38	72	74	62	
65	75	19	46	18	89	26	78	38	44	60	40	68	0	54	31	26	68	55	32	50	84	57	52	34	20	10	41	60	63	7	
37	48	58	65	69	69	67	45	86	19	57	29	86	54	0	40	34	59	21	34	87	46	46	68	19	45	64	82	21	22	49	
35	43	21	26	36	58	29	48	49	21	29	13	49	31	40	0	10	37	29	6	47	55	25	30	27	40	37	43	34	38	24	
39	49	23	36	35	66	33	52	52	18	39	14	59	26	34	10	0	46	29	7	53	58	33	40	18	31	34	48	34	37	19	
24	21	53	33	68	22	57	29	73	42	9	35	39	68	59	37	46	0	38	39	59	37	14	28	57	77	72	62	40	41	61	
16	27	50	50	64	48	59	26	78	11	36	16	68	55	21	29	29	38	0	24	75	31	25	50	26	53	63	72	5	8	48	
32	42	26	32	40	58	35	45	54	15	32	8	55	32	34	6	7	39	24	0	53	52	26	36	21	38	40	49	29	32	25	
73	77	32	27	33	80	24	85	21	68	51	59	30	50	87	47	53	59	75	53	0	93	58	30	71	70	44	9	80	82	47	
20	16	76	65	91	31	83	8	102	42	43	44	76	84	46	55	58	37	31	52	93	0	34	63	57	84	92	93	27	25	77	
16	20	44	30	59	32	50	26	67	28	11	21	44	57	46	25	33	14	25	26	58	34	0	29	42	64	62	58	28	30	49	
45	47	33	6	45	50	32	55	45	48	20	38	19	52	68	30	40	28	50	36	30	63	29	0	57	67	53	34	54	57	46	
41	53	40	53	49	73	50	53	67	16	51	21	76	34	19	27	18	57	26	21	71	57	42	57	0	27	44	65	30	32	30	
67	78	38	62	38	96	46	79	58	42	70	43	85	20	45	40	31	77	53	38	70	84	64	67	27	0	29	61	57	60	23	
72	81	20	46	11	94	22	85	29	52	63	48	66	10	64	37	34	72	63	40	44	92	62	53	44	29	0	35	68	71	15	
73	78	25	29	24	84	16	85	12	65	53	56	38	41	82	43	48	62	72	49	9	93	58	34	65	61	35	0	77	80	39	
16	26	56	54	69	48	64	24	84	16	39	21	72	60	21	34	34	40	5	29	80	27	28	54	30	57	68	77	0	3	53	
17	26	59	57	73	48	67	22	87	19	41	25	74	63	22	38	37	41	8	32	82	25	30	57	32	60	71	80	3	0	56	
57	67	15	40	19	82	23	70	38	37	52	33	62	7	49	24	19	61	48	25	47	77	49	46	30	23	15	39	53	56	0	
