nbClients: 30
nbTrips: 3
VehCapacity: 200
ClientDemands: 
10	20	30	10	30	20	10	20	10	20	10	10	30	20	20	10	10	20	10	10	20	20	30	10	30	30	10	30	30	20	
ServiceTimes: 
0	0	0	0	0	0	0	0	0	0	0	0	0	0	0	0	0	0	0	0	0	0	0	0	0	0	0	0	0	0	
TravelTimes: 
0	34	51	86	70	69	42	97	20	71	76	35	84	91	76	26	57	64	46	80	38	84	66	111	64	22	68	40	87	42	33	
34	0	24	54	72	35	51	74	37	37	53	56	80	81	41	51	24	64	13	47	34	82	33	85	33	15	71	34	73	44	48	
51	24	0	59	96	41	76	89	59	26	69	79	103	103	33	72	33	88	13	51	59	105	20	97	15	29	95	58	93	68	71	
86	54	59	0	80	19	78	37	78	39	28	93	78	69	32	92	30	74	49	8	61	81	43	39	50	69	81	58	55	68	82	
70	72	96	80	0	77	28	60	49	98	53	43	15	28	96	51	72	7	82	80	37	15	96	76	100	76	2	37	36	29	38	
69	35	41	19	77	0	69	49	64	25	32	81	78	73	20	78	11	69	30	11	50	81	26	56	33	51	77	48	60	59	70	
42	51	76	78	28	69	0	72	21	84	56	18	43	52	85	23	61	23	64	76	19	43	82	88	84	52	26	21	54	10	10	
97	74	89	37	60	49	72	0	82	74	21	89	51	39	68	92	55	56	76	43	61	54	76	16	83	88	61	58	25	63	79	
20	37	59	78	49	64	21	82	0	74	63	19	63	71	76	14	54	43	50	73	20	63	70	97	70	32	48	23	69	22	13	
71	37	26	39	98	25	84	74	74	0	58	93	102	98	8	88	25	90	25	32	65	104	5	78	11	49	98	64	85	75	83	
76	53	69	28	53	32	56	21	63	58	0	73	50	42	53	74	36	47	55	30	43	52	59	34	65	67	54	40	28	47	62	
35	56	79	93	43	81	18	89	19	93	73	0	59	69	95	9	71	39	69	89	31	58	89	106	90	51	41	34	72	26	11	
84	80	103	78	15	78	43	51	63	102	50	59	0	14	99	66	76	20	90	79	48	3	101	66	106	87	18	47	26	41	53	
91	81	103	69	28	73	52	39	71	98	42	69	14	0	94	76	73	30	89	72	53	17	98	53	103	91	30	51	14	49	62	
76	41	33	32	96	20	85	68	76	8	53	95	99	94	0	90	24	89	30	25	66	101	13	71	19	55	96	64	81	75	85	
26	51	72	92	51	78	23	92	14	88	74	9	66	76	90	0	68	46	64	87	31	66	84	108	84	44	49	34	76	29	13	
57	24	33	30	72	11	61	55	54	25	36	71	76	73	24	68	0	65	21	22	42	79	24	64	30	40	72	40	62	51	61	
64	64	88	74	7	69	23	56	43	90	47	39	20	30	89	46	65	0	75	73	30	20	89	73	92	69	7	29	34	22	33	
46	13	13	49	82	30	64	76	50	25	55	69	90	89	30	64	21	75	0	42	46	92	20	85	20	24	82	46	79	56	61	
80	47	51	8	80	11	76	43	73	32	30	89	79	72	25	87	22	73	42	0	57	82	35	46	42	62	81	55	58	65	78	
38	34	59	61	37	50	19	61	20	65	43	31	48	53	66	31	42	30	46	57	0	49	63	77	65	39	36	2	49	9	20	
84	82	105	81	15	81	43	54	63	104	52	58	3	17	101	66	79	20	92	82	49	0	103	69	108	89	17	48	29	42	53	
66	33	20	43	96	26	82	76	70	5	59	89	101	98	13	84	24	89	20	35	63	103	0	82	7	44	96	62	86	73	79	
111	85	97	39	76	56	88	16	97	78	34	106	66	53	71	108	64	73	85	46	77	69	82	0	88	100	78	74	40	79	95	
64	33	15	50	100	33	84	83	70	11	65	90	106	103	19	84	30	92	20	42	65	108	7	88	0	42	100	64	92	75	81	
22	15	29	69	76	51	52	88	32	49	67	51	87	91	55	44	40	69	24	62	39	89	44	100	42	0	75	40	84	47	45	
68	71	95	81	2	77	26	61	48	98	54	41	18	30	96	49	72	7	82	81	36	17	96	78	100	75	0	36	38	28	36	
40	34	58	58	37	48	21	58	23	64	40	34	47	51	64	34	40	29	46	55	2	48	62	74	64	40	36	0	47	11	23	
87	73	93	55	36	60	54	25	69	85	28	72	26	14	81	76	62	34	79	58	49	29	86	40	92	84	38	47	0	48	63	
42	44	68	68	29	59	10	63	22	75	47	26	41	49	75	29	51	22	56	65	9	42	73	79	75	47	28	11	48	0	15	
33	48	71	82	38	70	10	79	13	83	62	11	53	62	85	13	61	33	61	78	20	53	79	95	81	45	36	23	63	15	0	
