nbClients: 30
nbTrips: 3
VehCapacity: 200
ClientDemands: 
30	10	10	10	20	20	20	10	20	20	10	10	20	30	20	30	30	30	10	10	10	30	10	20	30	30	10	20	20	10	
ServiceTimes: 
0	0	0	0	0	0	0	0	0	0	0	0	0	0	0	0	0	0	0	0	0	0	0	0	0	0	0	0	0	0	
TravelTimes: 
0	30	79	23	33	26	55	54	64	27	63	58	26	41	71	68	63	34	54	75	86	50	10	76	37	44	26	25	37	48	81	
30	0	53	45	46	56	42	24	35	32	62	39	49	15	63	75	72	64	24	63	59	25	40	79	27	53	13	29	49	33	84	
79	53	0	81	73	102	84	46	19	62	62	74	84	39	49	80	81	108	46	41	8	29	89	75	47	71	53	61	72	37	78	
23	45	81	0	13	25	77	69	70	19	46	79	4	48	57	46	41	28	69	64	89	54	25	57	34	24	33	19	17	44	61	
33	46	73	13	0	38	84	69	65	15	33	84	13	46	45	34	30	39	69	52	82	49	37	44	28	11	33	17	4	36	49	
26	56	102	25	38	0	76	80	88	42	71	82	25	65	83	69	63	9	80	90	110	73	18	81	56	49	50	41	42	67	85	
55	42	84	77	84	76	0	38	65	71	104	11	81	54	105	116	112	85	38	104	87	62	59	121	69	93	55	68	87	75	126	
54	24	46	69	69	80	38	0	27	54	79	28	73	25	74	93	92	88	0	71	49	29	63	95	45	74	36	52	71	45	100	
64	35	19	70	65	88	65	27	0	51	62	56	73	23	54	80	80	95	27	48	23	16	74	78	37	66	38	50	65	31	82	
27	32	62	19	15	42	71	54	51	0	36	70	22	31	44	44	41	46	54	48	70	35	35	51	15	21	18	2	16	25	56	
63	62	62	46	33	71	104	79	62	36	0	101	46	53	16	18	20	72	79	26	70	50	69	16	35	22	49	39	29	33	21	
58	39	74	79	84	82	11	28	56	70	101	0	83	49	100	114	111	91	28	98	77	56	64	118	66	92	53	68	87	70	123	
26	49	84	4	13	25	81	73	73	22	46	83	0	52	59	45	40	26	73	66	92	57	28	56	37	24	37	23	17	47	60	
41	15	39	48	46	65	54	25	23	31	53	49	52	0	51	68	67	72	25	50	46	10	50	70	19	49	15	29	47	21	75	
71	63	49	57	45	83	105	74	54	44	16	100	59	51	0	33	36	85	74	9	57	45	79	26	37	36	52	46	42	30	29	
68	75	80	46	34	69	116	93	80	44	18	114	45	68	33	0	6	68	93	43	88	66	72	13	48	23	61	47	30	49	16	
63	72	81	41	30	63	112	92	80	41	20	111	40	67	36	6	0	62	92	46	90	66	67	18	47	19	58	44	26	49	22	
34	64	108	28	39	9	85	88	95	46	72	91	26	72	85	68	62	0	88	92	116	79	27	80	61	49	57	46	43	72	84	
54	24	46	69	69	80	38	0	27	54	79	28	73	25	74	93	92	88	0	71	49	29	63	95	45	74	36	52	71	45	100	
75	63	41	64	52	90	104	71	48	48	26	98	66	50	9	43	46	92	71	0	48	42	83	35	39	45	53	50	49	30	38	
86	59	8	89	82	110	87	49	23	70	70	77	92	46	57	88	90	116	49	48	0	36	96	83	55	80	60	69	81	45	86	
50	25	29	54	49	73	62	29	16	35	50	56	57	10	45	66	66	79	29	42	36	0	60	66	21	51	23	34	49	17	71	
10	40	89	25	37	18	59	63	74	35	69	64	28	50	79	72	67	27	63	83	96	60	0	82	46	49	36	33	42	57	86	
76	79	75	57	44	81	121	95	78	51	16	118	56	70	26	13	18	80	95	35	83	66	82	0	51	32	65	53	40	49	5	
37	27	47	34	28	56	69	45	37	15	35	66	37	19	37	48	47	61	45	39	55	21	46	51	0	30	15	14	28	11	56	
44	53	71	24	11	49	93	74	66	21	22	92	24	49	36	23	19	49	74	45	80	51	49	32	30	0	39	24	7	35	37	
26	13	53	33	33	50	55	36	38	18	49	53	37	15	52	61	58	57	36	53	60	23	36	65	15	39	0	16	35	24	70	
25	29	61	19	17	41	68	52	50	2	39	68	23	29	46	47	44	46	52	50	69	34	33	53	14	24	16	0	19	25	58	
37	49	72	17	4	42	87	71	65	16	29	87	17	47	42	30	26	43	71	49	81	49	42	40	28	7	35	19	0	35	44	
48	33	37	44	36	67	75	45	31	25	33	70	47	21	30	49	49	72	45	30	45	17	57	49	11	35	24	25	35	0	54	
81	84	78	61	49	85	126	100	82	56	21	123	60	75	29	16	22	84	100	38	86	71	86	5	56	37	70	58	44	54	0	
